{
  "generated_at": "2026-04-13T10:03:07+0000",
  "index_url": "https://xz.chsi.com.cn/speciality/index.action",
  "list_url": "https://xz.chsi.com.cn/speciality/list.action",
  "list_step": 15,
  "detail_count": 30,
  "details": [
    {
      "spec_id": "hdyxw5rt5yg54yow",
      "detail_url": "https://xz.chsi.com.cn/speciality/detail/ptbk.action?specId=hdyxw5rt5yg54yow",
      "all_urls": [
        "https://xz.chsi.com.cn/speciality/detail/ptbk.action?specId=hdyxw5rt5yg54yow",
        "https://xz.chsi.com.cn/speciality/detail.action?specId=hdyxw5rt5yg54yow"
      ],
      "meta": {
        "专业名称": "会计学",
        "专业代码": "120203",
        "层次": "本科（普通教育）",
        "门类代码": "105012",
        "门类名称": "管理学",
        "专业类": "工商管理类",
        "专业原始ID": "73385284",
        "评价人数": 214566,
        "综合满意度": 4.4
      }
    },
    {
      "spec_id": "17jj7pgv6zlerl1h",
      "detail_url": "https://xz.chsi.com.cn/speciality/detail/ptbk.action?specId=17jj7pgv6zlerl1h",
      "all_urls": [
        "https://xz.chsi.com.cn/speciality/detail/ptbk.action?specId=17jj7pgv6zlerl1h",
        "https://xz.chsi.com.cn/speciality/detail.action?specId=17jj7pgv6zlerl1h"
      ],
      "meta": {
        "专业名称": "英语",
        "专业代码": "050201",
        "层次": "本科（普通教育）",
        "门类代码": "105005",
        "门类名称": "文学",
        "专业类": "外国语言文学类",
        "专业原始ID": "73383483",
        "评价人数": 154767,
        "综合满意度": 4
      }
    },
    {
      "spec_id": "obqqf4z0102mkb1q",
      "detail_url": "https://xz.chsi.com.cn/speciality/detail/ptbk.action?specId=obqqf4z0102mkb1q",
      "all_urls": [
        "https://xz.chsi.com.cn/speciality/detail/ptbk.action?specId=obqqf4z0102mkb1q",
        "https://xz.chsi.com.cn/speciality/detail.action?specId=obqqf4z0102mkb1q"
      ],
      "meta": {
        "专业名称": "土木工程",
        "专业代码": "081001",
        "层次": "本科（普通教育）",
        "门类代码": "105008",
        "门类名称": "工学",
        "专业类": "土木类",
        "专业原始ID": "73384468",
        "评价人数": 145203,
        "综合满意度": 4.3
      }
    },
    {
      "spec_id": "woqt114tyt2flxjh",
      "detail_url": "https://xz.chsi.com.cn/speciality/detail/ptbk.action?specId=woqt114tyt2flxjh",
      "all_urls": [
        "https://xz.chsi.com.cn/speciality/detail/ptbk.action?specId=woqt114tyt2flxjh",
        "https://xz.chsi.com.cn/speciality/detail.action?specId=woqt114tyt2flxjh"
      ],
      "meta": {
        "专业名称": "计算机科学与技术",
        "专业代码": "080901",
        "层次": "本科（普通教育）",
        "门类代码": "105008",
        "门类名称": "工学",
        "专业类": "计算机类",
        "专业原始ID": "73384336",
        "评价人数": 143293,
        "综合满意度": 4.1
      }
    },
    {
      "spec_id": "tuvdj3n4rumxkcrr",
      "detail_url": "https://xz.chsi.com.cn/speciality/detail/zyjy.action?specId=tuvdj3n4rumxkcrr",
      "all_urls": [
        "https://xz.chsi.com.cn/speciality/detail/zyjy.action?specId=tuvdj3n4rumxkcrr",
        "https://xz.chsi.com.cn/speciality/detail.action?specId=tuvdj3n4rumxkcrr"
      ],
      "meta": {
        "专业名称": "大数据与会计",
        "专业代码": "530302",
        "层次": "高职（专科）",
        "门类代码": "106053",
        "门类名称": "财经商贸",
        "专业类": "财务会计类",
        "专业原始ID": "73387693",
        "评价人数": 126032,
        "综合满意度": 4.3
      }
    },
    {
      "spec_id": "0n2h7qobe9abyb3e",
      "detail_url": "https://xz.chsi.com.cn/speciality/detail/zyjy.action?specId=0n2h7qobe9abyb3e",
      "all_urls": [
        "https://xz.chsi.com.cn/speciality/detail/zyjy.action?specId=0n2h7qobe9abyb3e",
        "https://xz.chsi.com.cn/speciality/detail.action?specId=0n2h7qobe9abyb3e"
      ],
      "meta": {
        "专业名称": "护理",
        "专业代码": "520201",
        "层次": "高职（专科）",
        "门类代码": "106052",
        "门类名称": "医药卫生",
        "专业类": "护理类",
        "专业原始ID": "73387873",
        "评价人数": 125165,
        "综合满意度": 4.3
      }
    },
    {
      "spec_id": "e38wliz5hwewp9s3",
      "detail_url": "https://xz.chsi.com.cn/speciality/detail/ptbk.action?specId=e38wliz5hwewp9s3",
      "all_urls": [
        "https://xz.chsi.com.cn/speciality/detail/ptbk.action?specId=e38wliz5hwewp9s3",
        "https://xz.chsi.com.cn/speciality/detail.action?specId=e38wliz5hwewp9s3"
      ],
      "meta": {
        "专业名称": "法学",
        "专业代码": "030101",
        "层次": "本科（普通教育）",
        "门类代码": "105003",
        "门类名称": "法学",
        "专业类": "法学类",
        "专业原始ID": "73381155",
        "评价人数": 117366,
        "综合满意度": 4.3
      }
    },
    {
      "spec_id": "hv7u0c1q96bimo7x",
      "detail_url": "https://xz.chsi.com.cn/speciality/detail/ptbk.action?specId=hv7u0c1q96bimo7x",
      "all_urls": [
        "https://xz.chsi.com.cn/speciality/detail/ptbk.action?specId=hv7u0c1q96bimo7x",
        "https://xz.chsi.com.cn/speciality/detail.action?specId=hv7u0c1q96bimo7x"
      ],
      "meta": {
        "专业名称": "汉语言文学",
        "专业代码": "050101",
        "层次": "本科（普通教育）",
        "门类代码": "105005",
        "门类名称": "文学",
        "专业类": "中国语言文学类",
        "专业原始ID": "73383455",
        "评价人数": 113670,
        "综合满意度": 4.4
      }
    },
    {
      "spec_id": "ll9xvaqloupm53on",
      "detail_url": "https://xz.chsi.com.cn/speciality/detail/ptbk.action?specId=ll9xvaqloupm53on",
      "all_urls": [
        "https://xz.chsi.com.cn/speciality/detail/ptbk.action?specId=ll9xvaqloupm53on",
        "https://xz.chsi.com.cn/speciality/detail.action?specId=ll9xvaqloupm53on"
      ],
      "meta": {
        "专业名称": "机械设计制造及其自动化",
        "专业代码": "080202",
        "层次": "本科（普通教育）",
        "门类代码": "105008",
        "门类名称": "工学",
        "专业类": "机械类",
        "专业原始ID": "73384204",
        "评价人数": 108857,
        "综合满意度": 4.2
      }
    },
    {
      "spec_id": "n8txd5lfx5w9fyxh",
      "detail_url": "https://xz.chsi.com.cn/speciality/detail/ptbk.action?specId=n8txd5lfx5w9fyxh",
      "all_urls": [
        "https://xz.chsi.com.cn/speciality/detail/ptbk.action?specId=n8txd5lfx5w9fyxh",
        "https://xz.chsi.com.cn/speciality/detail.action?specId=n8txd5lfx5w9fyxh"
      ],
      "meta": {
        "专业名称": "国际经济与贸易",
        "专业代码": "020401",
        "层次": "本科（普通教育）",
        "门类代码": "105002",
        "门类名称": "经济学",
        "专业类": "经济与贸易类",
        "专业原始ID": "73381083",
        "评价人数": 107560,
        "综合满意度": 4.1
      }
    },
    {
      "spec_id": "oycmnanbvzt1jgjd",
      "detail_url": "https://xz.chsi.com.cn/speciality/detail/ptbk.action?specId=oycmnanbvzt1jgjd",
      "all_urls": [
        "https://xz.chsi.com.cn/speciality/detail/ptbk.action?specId=oycmnanbvzt1jgjd",
        "https://xz.chsi.com.cn/speciality/detail.action?specId=oycmnanbvzt1jgjd"
      ],
      "meta": {
        "专业名称": "电气工程及其自动化",
        "专业代码": "080601",
        "层次": "本科（普通教育）",
        "门类代码": "105008",
        "门类名称": "工学",
        "专业类": "电气类",
        "专业原始ID": "73384320",
        "评价人数": 103389,
        "综合满意度": 4.4
      }
    },
    {
      "spec_id": "qhns7a1ug663q7mc",
      "detail_url": "https://xz.chsi.com.cn/speciality/detail/ptbk.action?specId=qhns7a1ug663q7mc",
      "all_urls": [
        "https://xz.chsi.com.cn/speciality/detail/ptbk.action?specId=qhns7a1ug663q7mc",
        "https://xz.chsi.com.cn/speciality/detail.action?specId=qhns7a1ug663q7mc"
      ],
      "meta": {
        "专业名称": "财务管理",
        "专业代码": "120204",
        "层次": "本科（普通教育）",
        "门类代码": "105012",
        "门类名称": "管理学",
        "专业类": "工商管理类",
        "专业原始ID": "73385288",
        "评价人数": 102667,
        "综合满意度": 4.4
      }
    },
    {
      "spec_id": "ze5prc7531dbpqwx",
      "detail_url": "https://xz.chsi.com.cn/speciality/detail/ptbk.action?specId=ze5prc7531dbpqwx",
      "all_urls": [
        "https://xz.chsi.com.cn/speciality/detail/ptbk.action?specId=ze5prc7531dbpqwx",
        "https://xz.chsi.com.cn/speciality/detail.action?specId=ze5prc7531dbpqwx"
      ],
      "meta": {
        "专业名称": "临床医学",
        "专业代码": "100201",
        "层次": "本科（普通教育）",
        "门类代码": "105010",
        "门类名称": "医学",
        "专业类": "临床医学类",
        "专业原始ID": "73385072",
        "评价人数": 102254,
        "综合满意度": 4.2
      }
    },
    {
      "spec_id": "sb4t562ct3mvkthy",
      "detail_url": "https://xz.chsi.com.cn/speciality/detail/ptbk.action?specId=sb4t562ct3mvkthy",
      "all_urls": [
        "https://xz.chsi.com.cn/speciality/detail/ptbk.action?specId=sb4t562ct3mvkthy",
        "https://xz.chsi.com.cn/speciality/detail.action?specId=sb4t562ct3mvkthy"
      ],
      "meta": {
        "专业名称": "工商管理",
        "专业代码": "120201",
        "层次": "本科（普通教育）",
        "门类代码": "105012",
        "门类名称": "管理学",
        "专业类": "工商管理类",
        "专业原始ID": "73385276",
        "评价人数": 96538,
        "综合满意度": 4.2
      }
    },
    {
      "spec_id": "lkmh9iqbd372uoyj",
      "detail_url": "https://xz.chsi.com.cn/speciality/detail/zyjy.action?specId=lkmh9iqbd372uoyj",
      "all_urls": [
        "https://xz.chsi.com.cn/speciality/detail/zyjy.action?specId=lkmh9iqbd372uoyj",
        "https://xz.chsi.com.cn/speciality/detail.action?specId=lkmh9iqbd372uoyj"
      ],
      "meta": {
        "专业名称": "机电一体化技术",
        "专业代码": "460301",
        "层次": "高职（专科）",
        "门类代码": "106046",
        "门类名称": "装备制造",
        "专业类": "自动化类",
        "专业原始ID": "73386880",
        "评价人数": 92328,
        "综合满意度": 4.2
      }
    },
    {
      "spec_id": "v8v0s8dzbduwpb9i",
      "detail_url": "https://xz.chsi.com.cn/speciality/detail/zyjy.action?specId=v8v0s8dzbduwpb9i",
      "all_urls": [
        "https://xz.chsi.com.cn/speciality/detail/zyjy.action?specId=v8v0s8dzbduwpb9i",
        "https://xz.chsi.com.cn/speciality/detail.action?specId=v8v0s8dzbduwpb9i"
      ],
      "meta": {
        "专业名称": "工程造价",
        "专业代码": "440501",
        "层次": "高职（专科）",
        "门类代码": "106044",
        "门类名称": "土木建筑",
        "专业类": "建设工程管理类",
        "专业原始ID": "73386624",
        "评价人数": 89478,
        "综合满意度": 4.2
      }
    },
    {
      "spec_id": "fqk7wdlq4gjul7tq",
      "detail_url": "https://xz.chsi.com.cn/speciality/detail/zyjy.action?specId=fqk7wdlq4gjul7tq",
      "all_urls": [
        "https://xz.chsi.com.cn/speciality/detail/zyjy.action?specId=fqk7wdlq4gjul7tq",
        "https://xz.chsi.com.cn/speciality/detail.action?specId=fqk7wdlq4gjul7tq"
      ],
      "meta": {
        "专业名称": "建筑工程技术",
        "专业代码": "440301",
        "层次": "高职（专科）",
        "门类代码": "106044",
        "门类名称": "土木建筑",
        "专业类": "土建施工类",
        "专业原始ID": "73386572",
        "评价人数": 88893,
        "综合满意度": 4.3
      }
    },
    {
      "spec_id": "prrl4h12puriaw46",
      "detail_url": "https://xz.chsi.com.cn/speciality/detail/ptbk.action?specId=prrl4h12puriaw46",
      "all_urls": [
        "https://xz.chsi.com.cn/speciality/detail/ptbk.action?specId=prrl4h12puriaw46",
        "https://xz.chsi.com.cn/speciality/detail.action?specId=prrl4h12puriaw46"
      ],
      "meta": {
        "专业名称": "金融学",
        "专业代码": "020301",
        "层次": "本科（普通教育）",
        "门类代码": "105002",
        "门类名称": "经济学",
        "专业类": "金融学类",
        "专业原始ID": "73381091",
        "评价人数": 86591,
        "综合满意度": 4.3
      }
    },
    {
      "spec_id": "x34jt0lncniica56",
      "detail_url": "https://xz.chsi.com.cn/speciality/detail/ptbk.action?specId=x34jt0lncniica56",
      "all_urls": [
        "https://xz.chsi.com.cn/speciality/detail/ptbk.action?specId=x34jt0lncniica56",
        "https://xz.chsi.com.cn/speciality/detail.action?specId=x34jt0lncniica56"
      ],
      "meta": {
        "专业名称": "电子信息工程",
        "专业代码": "080701",
        "层次": "本科（普通教育）",
        "门类代码": "105008",
        "门类名称": "工学",
        "专业类": "电子信息类",
        "专业原始ID": "73384328",
        "评价人数": 73333,
        "综合满意度": 4.1
      }
    },
    {
      "spec_id": "ikr0e389k541pjkp",
      "detail_url": "https://xz.chsi.com.cn/speciality/detail/ptbk.action?specId=ikr0e389k541pjkp",
      "all_urls": [
        "https://xz.chsi.com.cn/speciality/detail/ptbk.action?specId=ikr0e389k541pjkp",
        "https://xz.chsi.com.cn/speciality/detail.action?specId=ikr0e389k541pjkp"
      ],
      "meta": {
        "专业名称": "软件工程",
        "专业代码": "080902",
        "层次": "本科（普通教育）",
        "门类代码": "105008",
        "门类名称": "工学",
        "专业类": "计算机类",
        "专业原始ID": "73384356",
        "评价人数": 70579,
        "综合满意度": 4.1
      }
    },
    {
      "spec_id": "1impkovy57o72pdn",
      "detail_url": "https://xz.chsi.com.cn/speciality/detail/zyjy.action?specId=1impkovy57o72pdn",
      "all_urls": [
        "https://xz.chsi.com.cn/speciality/detail/zyjy.action?specId=1impkovy57o72pdn",
        "https://xz.chsi.com.cn/speciality/detail.action?specId=1impkovy57o72pdn"
      ],
      "meta": {
        "专业名称": "计算机应用技术",
        "专业代码": "510201",
        "层次": "高职（专科）",
        "门类代码": "106051",
        "门类名称": "电子与信息",
        "专业类": "计算机类",
        "专业原始ID": "73387048",
        "评价人数": 69496,
        "综合满意度": 4
      }
    },
    {
      "spec_id": "g002omujmd5rxg8y",
      "detail_url": "https://xz.chsi.com.cn/speciality/detail/ptbk.action?specId=g002omujmd5rxg8y",
      "all_urls": [
        "https://xz.chsi.com.cn/speciality/detail/ptbk.action?specId=g002omujmd5rxg8y",
        "https://xz.chsi.com.cn/speciality/detail.action?specId=g002omujmd5rxg8y"
      ],
      "meta": {
        "专业名称": "护理学",
        "专业代码": "101101",
        "层次": "本科（普通教育）",
        "门类代码": "105010",
        "门类名称": "医学",
        "专业类": "护理学类",
        "专业原始ID": "73385172",
        "评价人数": 66416,
        "综合满意度": 4.3
      }
    },
    {
      "spec_id": "o43xx827we1hqp5j",
      "detail_url": "https://xz.chsi.com.cn/speciality/detail/zyjy.action?specId=o43xx827we1hqp5j",
      "all_urls": [
        "https://xz.chsi.com.cn/speciality/detail/zyjy.action?specId=o43xx827we1hqp5j",
        "https://xz.chsi.com.cn/speciality/detail.action?specId=o43xx827we1hqp5j"
      ],
      "meta": {
        "专业名称": "现代物流管理",
        "专业代码": "530802",
        "层次": "高职（专科）",
        "门类代码": "106053",
        "门类名称": "财经商贸",
        "专业类": "物流类",
        "专业原始ID": "73387805",
        "评价人数": 65654,
        "综合满意度": 4.1
      }
    },
    {
      "spec_id": "3fbjjytl2wfpo3uk",
      "detail_url": "https://xz.chsi.com.cn/speciality/detail/zyjy.action?specId=3fbjjytl2wfpo3uk",
      "all_urls": [
        "https://xz.chsi.com.cn/speciality/detail/zyjy.action?specId=3fbjjytl2wfpo3uk",
        "https://xz.chsi.com.cn/speciality/detail.action?specId=3fbjjytl2wfpo3uk"
      ],
      "meta": {
        "专业名称": "学前教育",
        "专业代码": "570102",
        "层次": "高职（专科）",
        "门类代码": "106057",
        "门类名称": "教育与体育",
        "专业类": "教育类",
        "专业原始ID": "73388373",
        "评价人数": 65487,
        "综合满意度": 4.5
      }
    },
    {
      "spec_id": "6jznnku3ino08o78",
      "detail_url": "https://xz.chsi.com.cn/speciality/detail/ptbk.action?specId=6jznnku3ino08o78",
      "all_urls": [
        "https://xz.chsi.com.cn/speciality/detail/ptbk.action?specId=6jznnku3ino08o78",
        "https://xz.chsi.com.cn/speciality/detail.action?specId=6jznnku3ino08o78"
      ],
      "meta": {
        "专业名称": "市场营销",
        "专业代码": "120202",
        "层次": "本科（普通教育）",
        "门类代码": "105012",
        "门类名称": "管理学",
        "专业类": "工商管理类",
        "专业原始ID": "73385280",
        "评价人数": 65353,
        "综合满意度": 4.2
      }
    },
    {
      "spec_id": "4sh5b7a19iyaxbxd",
      "detail_url": "https://xz.chsi.com.cn/speciality/detail/zyjy.action?specId=4sh5b7a19iyaxbxd",
      "all_urls": [
        "https://xz.chsi.com.cn/speciality/detail/zyjy.action?specId=4sh5b7a19iyaxbxd",
        "https://xz.chsi.com.cn/speciality/detail.action?specId=4sh5b7a19iyaxbxd"
      ],
      "meta": {
        "专业名称": "电子商务",
        "专业代码": "530701",
        "层次": "高职（专科）",
        "门类代码": "106053",
        "门类名称": "财经商贸",
        "专业类": "电子商务类",
        "专业原始ID": "73387773",
        "评价人数": 65317,
        "综合满意度": 4.1
      }
    },
    {
      "spec_id": "x2ccr82b8wksg4dz",
      "detail_url": "https://xz.chsi.com.cn/speciality/detail/ptbk.action?specId=x2ccr82b8wksg4dz",
      "all_urls": [
        "https://xz.chsi.com.cn/speciality/detail/ptbk.action?specId=x2ccr82b8wksg4dz",
        "https://xz.chsi.com.cn/speciality/detail.action?specId=x2ccr82b8wksg4dz"
      ],
      "meta": {
        "专业名称": "通信工程",
        "专业代码": "080703",
        "层次": "本科（普通教育）",
        "门类代码": "105008",
        "门类名称": "工学",
        "专业类": "电子信息类",
        "专业原始ID": "73384332",
        "评价人数": 60632,
        "综合满意度": 4.1
      }
    },
    {
      "spec_id": "1fmwa6rijyc73jle",
      "detail_url": "https://xz.chsi.com.cn/speciality/detail/ptbk.action?specId=1fmwa6rijyc73jle",
      "all_urls": [
        "https://xz.chsi.com.cn/speciality/detail/ptbk.action?specId=1fmwa6rijyc73jle",
        "https://xz.chsi.com.cn/speciality/detail.action?specId=1fmwa6rijyc73jle"
      ],
      "meta": {
        "专业名称": "自动化",
        "专业代码": "080801",
        "层次": "本科（普通教育）",
        "门类代码": "105008",
        "门类名称": "工学",
        "专业类": "自动化类",
        "专业原始ID": "73384324",
        "评价人数": 58833,
        "综合满意度": 4.2
      }
    },
    {
      "spec_id": "1zm5hrvxosmo4lk6",
      "detail_url": "https://xz.chsi.com.cn/speciality/detail/ptbk.action?specId=1zm5hrvxosmo4lk6",
      "all_urls": [
        "https://xz.chsi.com.cn/speciality/detail/ptbk.action?specId=1zm5hrvxosmo4lk6",
        "https://xz.chsi.com.cn/speciality/detail.action?specId=1zm5hrvxosmo4lk6"
      ],
      "meta": {
        "专业名称": "数学与应用数学",
        "专业代码": "070101",
        "层次": "本科（普通教育）",
        "门类代码": "105007",
        "门类名称": "理学",
        "专业类": "数学类",
        "专业原始ID": "73383775",
        "评价人数": 56599,
        "综合满意度": 4.2
      }
    },
    {
      "spec_id": "3wzp1uineb4hqn0x",
      "detail_url": "https://xz.chsi.com.cn/speciality/detail/zyjy.action?specId=3wzp1uineb4hqn0x",
      "all_urls": [
        "https://xz.chsi.com.cn/speciality/detail/zyjy.action?specId=3wzp1uineb4hqn0x",
        "https://xz.chsi.com.cn/speciality/detail.action?specId=3wzp1uineb4hqn0x"
      ],
      "meta": {
        "专业名称": "计算机网络技术",
        "专业代码": "510202",
        "层次": "高职（专科）",
        "门类代码": "106051",
        "门类名称": "电子与信息",
        "专业类": "计算机类",
        "专业原始ID": "73387052",
        "评价人数": 54352,
        "综合满意度": 4
      }
    }
  ],
  "pages": [
    {
      "page_no": 1,
      "start": 0,
      "url": "https://xz.chsi.com.cn/speciality/list.action?start=0&phbType=1&cc=&ml=&xk=&zymc=&_t=1776074587220",
      "status_code": 200,
      "content_type": "text/html;charset=utf-8",
      "candidate_count": 15,
      "new_spec_count": 15,
      "total_page": 95,
      "total_count": 1421,
      "preview": "{\"data\":{\"pageCount\":15,\"curPage\":1,\"totalPage\":95,\"totalCount\":1421,\"isPreviousPageAvailable\":false,\"startOfPreviousPage\":0,\"isNextPageAvailable\":true,\"startOfNextPage\":15,\"pageArray\":[{\"cc\":\"本科（普通教育）\",\"evlNum\":214566,\"evlValue\":4.4,\"ml\":\"105012\",\"mlmc\":\"管理学\",\"specId\":\"hdyxw5rt5yg54yow\",\"xk\":\"工商管理类\",\"zyId\":\"73385284\",\"zydm\":\"120203\",\"zymc\":\"会计学\"},{\"cc\":\"本科（普通教育）\",\"evlNum\":154767,\"evlValue\":4,\"ml\":\"105005\",\"mlmc\":\"文学\",\"specId\":\"17jj7pgv6zlerl1h\",\"xk\":\"外国语言文学类\",\"zyId\":\"73383483\",\"zydm\":\"050201\",\""
    },
    {
      "page_no": 2,
      "start": 15,
      "url": "https://xz.chsi.com.cn/speciality/list.action?start=15&phbType=1&cc=&ml=&xk=&zymc=&_t=1776074587713",
      "status_code": 200,
      "content_type": "text/html;charset=utf-8",
      "candidate_count": 15,
      "new_spec_count": 15,
      "total_page": 95,
      "total_count": 1421,
      "preview": "{\"data\":{\"pageCount\":15,\"curPage\":2,\"totalPage\":95,\"totalCount\":1421,\"isPreviousPageAvailable\":true,\"startOfPreviousPage\":0,\"isNextPageAvailable\":true,\"startOfNextPage\":30,\"pageArray\":[{\"cc\":\"高职（专科）\",\"evlNum\":89478,\"evlValue\":4.2,\"ml\":\"106044\",\"mlmc\":\"土木建筑\",\"specId\":\"v8v0s8dzbduwpb9i\",\"xk\":\"建设工程管理类\",\"zyId\":\"73386624\",\"zydm\":\"440501\",\"zymc\":\"工程造价\"},{\"cc\":\"高职（专科）\",\"evlNum\":88893,\"evlValue\":4.3,\"ml\":\"106044\",\"mlmc\":\"土木建筑\",\"specId\":\"fqk7wdlq4gjul7tq\",\"xk\":\"土建施工类\",\"zyId\":\"73386572\",\"zydm\":\"440301\",\"z"
    }
  ],
  "subcategory": {
    "url": "https://xz.chsi.com.cn/speciality/subcategory.action?df=10&_t=1776074585760",
    "status_code": 200,
    "content_type": "text/html;charset=utf-8",
    "raw_text_preview": "\r\n\r\n{\"data\":[{\"code\":\"50\",\"id\":\"1050\",\"name\":\"本科（普通教育）\"},{\"code\":\"70\",\"id\":\"1070\",\"name\":\"本科（职业教育）\"},{\"code\":\"60\",\"id\":\"1060\",\"name\":\"高职（专科）\"}],\"flag\":true,\"msg\":\"\"}",
    "json": {
      "data": [
        {
          "code": "50",
          "id": "1050",
          "name": "本科（普通教育）"
        },
        {
          "code": "70",
          "id": "1070",
          "name": "本科（职业教育）"
        },
        {
          "code": "60",
          "id": "1060",
          "name": "高职（专科）"
        }
      ],
      "flag": true,
      "msg": ""
    }
  }
}